,RowStart,ColumnStart,RowCount,ColumnCount,OptimalExposureTimes
0,0.0,38,719.0,6,261.86830015313933
1,0.0,66,719.0,10,155.80865603644648
2,0.0,96,719.0,11,140.6828465651995
3,0.0,127,719.0,10,160.26241799437676
4,0.0,158,719.0,9,178.68338557993732
5,0.0,187,719.0,11,130.33536585365854
6,0.0,218,719.0,11,123.59956631731117
7,0.0,248,719.0,11,130.8840413318025
8,0.0,278,719.0,12,103.35448776065276
9,0.0,310,719.0,10,157.09692237023427
10,0.0,340,719.0,10,194.09761634506242
11,0.0,370,719.0,11,130.4845478824876
12,0.0,401,719.0,11,140.04914004914005
13,0.0,431,719.0,11,150.86016762240848
14,0.0,462,719.0,10,161.7786187322611
