,RowStart,ColumnStart,RowCount,ColumnCount,OptimalExposureTimes
0,0.0,38,719.0,7,267.8151918559123
1,0.0,66,719.0,10,152.95169946332737
2,0.0,96,719.0,11,136.63603675589292
3,0.0,127,719.0,10,158.26006478482182
4,0.0,158,719.0,9,174.75728155339806
5,0.0,187,719.0,11,125.87412587412588
6,0.0,218,719.0,11,123.55491329479769
7,0.0,248,719.0,11,130.58419243986256
8,0.0,278,719.0,12,101.87667560321717
9,0.0,310,719.0,10,155.38391640163562
10,0.0,340,719.0,10,189.47368421052633
11,0.0,370,719.0,11,128.91066716924237
12,0.0,401,719.0,11,139.08092720618137
13,0.0,431,719.0,11,149.60629921259843
14,0.0,462,719.0,10,163.01239275500475
